﻿<?xml version="1.0" encoding="utf-8"?>
<report
	progress="">
	<activity
		result="Failed"
		duration="0ms"
		durationms="0"
		type="root"
		rid="adb9b32f24fb455"
		totalerrorcount="1"
		totalwarningcount="1"
		totalsuccesstestcasecount="0"
		totalfailedtestcasecount="0"
		totalblockedtestcasecount="0"
		childsuccesscount="0"
		childfailedcount="0"
		childblockedcount="0"
		totalsuccesscount="0"
		totalfailedcount="0"
		totalblockedcount="0"
		totalmaintenancemodecount="0"
		user="amorales"
		rxversion="8.0.1.0"
		host="WOVENWARE-138"
		osversion="Windows 10 64bit"
		runtimeversion="4.0.30319.42000"
		procarch="32bit"
		oslanguage="en-US"
		dtnlanguage="en-US"
		screenresolution="3840x1080"
		timestamp="4/24/2018 4:54:33 PM"
		timestampiso="2018-04-24T20:54:33"
		endtime="4/24/2018 4:54:47 PM"
		timeoutfactor="1"
		module="LoginIntelliSysClient">
		<detail>
			LoginIntelliSysClient
		</detail>
		<varbindings>
		</varbindings>
		<item
			timeRelativeToTestSuiteStartTime="00:00.863"
			timeRelativeToTestModuleStartTime="00:00.864"
			timeWallClock="16:54:34"
			time="00:00.863"
			level="Warn"
			category="Data">
			<message>
				The following module variables are not bound to a data column:<br/>userName, domain, Password, IDBadgeFriendlyName
			</message>
			<metainfo
				loglvl="Warn">
			</metainfo>
		</item>
		<item
			timeRelativeToTestSuiteStartTime="00:00.885"
			timeRelativeToTestModuleStartTime="00:00.886"
			timeWallClock="16:54:34"
			time="00:00.885"
			level="Info"
			category="Application">
			<message>
				Run application 'C:\Program Files (x86)\GSL Solutions\GSL IntelliSys Client\IntelliSysClient.application' with arguments '' in normal mode.
			</message>
			<metainfo
				itemindex="0"
				codefile="C:\GSL\ui_automation\Ranorex\Intellitrak_UI_Tests\Intellitrak_UI_Tests\LoginIntelliSysClient.cs"
				codeline="134"
				loglvl="Info">
			</metainfo>
		</item>
		<item
			timeRelativeToTestSuiteStartTime="00:00.951"
			timeRelativeToTestModuleStartTime="00:00.952"
			timeWallClock="16:54:34"
			time="00:00.951"
			level="Info"
			category="Mouse">
			<message>
				Mouse Left Click item 'LoginWin.UnableToScanYourIDBadgePressHere' at Center.
			</message>
			<metainfo
				type="repoitem"
				path="/form[@automationid='LoginWin']/container[1]/container[1]/container[2]/button[@text~'^Unable\ to\ scan\ your\ ID\ ba']"
				itempath="container[1]/container[1]/container[2]/button[@text~'^Unable\ to\ scan\ your\ ID\ ba']"
				fullname="Intellitrak_UI_TestsRepository.LoginWin.UnableToScanYourIDBadgePressHere"
				id="fa4f76fff8bd42918547d0b9eb05b752"
				timeout="60000"
				codefile="C:\GSL\ui_automation\Ranorex\Intellitrak_UI_Tests\Intellitrak_UI_Tests\LoginIntelliSysClient.cs"
				codeline="137"
				itemindex="1"
				loglvl="Info">
			</metainfo>
		</item>
		<item
			timeRelativeToTestSuiteStartTime="00:06.187"
			timeRelativeToTestModuleStartTime="00:06.188"
			timeWallClock="16:54:39"
			time="00:06.187"
			level="Info"
			category="Mouse">
			<message>
				Mouse Left Click item 'LoginWin.PbTagID' at 1;8.
			</message>
			<metainfo
				type="repoitem"
				path="/form[@automationid='LoginWin']/container[1]/container[1]/container[1]/?/?/text[@automationid='pbTagID']"
				itempath="container[1]/container[1]/container[1]/?/?/text[@automationid='pbTagID']"
				fullname="Intellitrak_UI_TestsRepository.LoginWin.PbTagID"
				id="631bf9cf62f44b1299bb1fbb49c8d4ac"
				timeout="60000"
				codefile="C:\GSL\ui_automation\Ranorex\Intellitrak_UI_Tests\Intellitrak_UI_Tests\LoginIntelliSysClient.cs"
				codeline="140"
				itemindex="2"
				loglvl="Info">
			</metainfo>
		</item>
		<item
			timeRelativeToTestSuiteStartTime="00:06.688"
			timeRelativeToTestModuleStartTime="00:06.689"
			timeWallClock="16:54:39"
			time="00:06.688"
			level="Info"
			category="Keyboard">
			<message>
				Key sequence from variable '$IDBadgeFriendlyName'.
			</message>
			<metainfo
				itemindex="3"
				codefile="C:\GSL\ui_automation\Ranorex\Intellitrak_UI_Tests\Intellitrak_UI_Tests\LoginIntelliSysClient.cs"
				codeline="143"
				loglvl="Info">
			</metainfo>
		</item>
		<item
			timeRelativeToTestSuiteStartTime="00:06.831"
			timeRelativeToTestModuleStartTime="00:06.832"
			timeWallClock="16:54:40"
			time="00:06.831"
			level="Info"
			category="Mouse">
			<message>
				Mouse Left Click item 'LoginWin.TxtLoginName' at 68;25.
			</message>
			<metainfo
				type="repoitem"
				path="/form[@automationid='LoginWin']/container[1]/container[1]/container[1]/?/?/text[@automationid='txtLoginName']"
				itempath="container[1]/container[1]/container[1]/?/?/text[@automationid='txtLoginName']"
				fullname="Intellitrak_UI_TestsRepository.LoginWin.TxtLoginName"
				id="ac5c66cb4a434f10b512b78769ad4fd1"
				timeout="60000"
				codefile="C:\GSL\ui_automation\Ranorex\Intellitrak_UI_Tests\Intellitrak_UI_Tests\LoginIntelliSysClient.cs"
				codeline="146"
				itemindex="4"
				loglvl="Info">
			</metainfo>
		</item>
		<item
			timeRelativeToTestSuiteStartTime="00:07.332"
			timeRelativeToTestModuleStartTime="00:07.333"
			timeWallClock="16:54:40"
			time="00:07.332"
			level="Info"
			category="Keyboard">
			<message>
				Key sequence from variable '$userName'.
			</message>
			<metainfo
				itemindex="5"
				codefile="C:\GSL\ui_automation\Ranorex\Intellitrak_UI_Tests\Intellitrak_UI_Tests\LoginIntelliSysClient.cs"
				codeline="149"
				loglvl="Info">
			</metainfo>
		</item>
		<item
			timeRelativeToTestSuiteStartTime="00:07.721"
			timeRelativeToTestModuleStartTime="00:07.722"
			timeWallClock="16:54:41"
			time="00:07.721"
			level="Info"
			category="Keyboard">
			<message>
				Key sequence from variable '$domain'.
			</message>
			<metainfo
				itemindex="6"
				codefile="C:\GSL\ui_automation\Ranorex\Intellitrak_UI_Tests\Intellitrak_UI_Tests\LoginIntelliSysClient.cs"
				codeline="152"
				loglvl="Info">
			</metainfo>
		</item>
		<item
			timeRelativeToTestSuiteStartTime="00:07.967"
			timeRelativeToTestModuleStartTime="00:07.968"
			timeWallClock="16:54:41"
			time="00:07.967"
			level="Info"
			category="Mouse">
			<message>
				Mouse Left Click item 'LoginWin.SomeContainer.PbPassword' at 9;46.
			</message>
			<metainfo
				type="repoitem"
				path="/form[@automationid='LoginWin']/container[1]/container[1]/container[1]/?/?/text[@automationid='pbPassword']"
				itempath="?/?/text[@automationid='pbPassword']"
				fullname="Intellitrak_UI_TestsRepository.LoginWin.SomeContainer.PbPassword"
				id="9bf2961360564b8687b19b41748544a7"
				timeout="90000"
				codefile="C:\GSL\ui_automation\Ranorex\Intellitrak_UI_Tests\Intellitrak_UI_Tests\LoginIntelliSysClient.cs"
				codeline="155"
				itemindex="7"
				loglvl="Info">
			</metainfo>
		</item>
		<item
			timeRelativeToTestSuiteStartTime="00:08.418"
			timeRelativeToTestModuleStartTime="00:08.419"
			timeWallClock="16:54:41"
			time="00:08.418"
			level="Info"
			category="Keyboard">
			<message>
				Key sequence from variable '$Password'.
			</message>
			<metainfo
				itemindex="8"
				codefile="C:\GSL\ui_automation\Ranorex\Intellitrak_UI_Tests\Intellitrak_UI_Tests\LoginIntelliSysClient.cs"
				codeline="158"
				loglvl="Info">
			</metainfo>
		</item>
		<item
			timeRelativeToTestSuiteStartTime="00:08.623"
			timeRelativeToTestModuleStartTime="00:08.624"
			timeWallClock="16:54:41"
			time="00:08.623"
			level="Info"
			category="Mouse">
			<message>
				Mouse Left Click item 'LoginWin.SomeContainer.BtnLogin' at 190;28.
			</message>
			<metainfo
				type="repoitem"
				path="/form[@automationid='LoginWin']/container[1]/container[1]/container[1]/?/?/button[@automationid='btnLogin']"
				itempath="?/?/button[@automationid='btnLogin']"
				fullname="Intellitrak_UI_TestsRepository.LoginWin.SomeContainer.BtnLogin"
				id="0a43b4424ee143ab943a1fe66027bba9"
				timeout="90000"
				codefile="C:\GSL\ui_automation\Ranorex\Intellitrak_UI_Tests\Intellitrak_UI_Tests\LoginIntelliSysClient.cs"
				codeline="161"
				itemindex="9"
				loglvl="Info">
			</metainfo>
		</item>
		<item
			timeRelativeToTestSuiteStartTime="00:09.084"
			timeRelativeToTestModuleStartTime="00:09.085"
			timeWallClock="16:54:42"
			time="00:09.084"
			level="Info"
			category="Validation">
			<message>
				(Optional Action)<br/>Validating AttributeEqual (Text=$userName) on item 'ChromeWin.CurrentUserNameTextBox'.
			</message>
			<metainfo
				type="repoitem"
				path="/form[@automationid='ChromeWin']/?/?/text[@automationid='CurrentUserNameTextBox']"
				itempath="?/?/text[@automationid='CurrentUserNameTextBox']"
				fullname="Intellitrak_UI_TestsRepository.ChromeWin.CurrentUserNameTextBox"
				id="ce1e1a99ccc9475188e340981adc25ed"
				timeout="60000"
				codefile="C:\GSL\ui_automation\Ranorex\Intellitrak_UI_Tests\Intellitrak_UI_Tests\LoginIntelliSysClient.cs"
				codeline="165"
				itemindex="10"
				loglvl="Info">
			</metainfo>
		</item>
		<item
			timeRelativeToTestSuiteStartTime="00:11.446"
			timeRelativeToTestModuleStartTime="00:11.447"
			timeWallClock="16:54:44"
			time="00:11.446"
			level="Success"
			category="Validation">
			<message>
				Attribute 'Text' of element for item 'Intellitrak_UI_TestsRepository.ChromeWin.CurrentUserNameTextBox' does match the specified value.
			</message>
			<metainfo
				type="repoitem"
				path="/form[@automationid='ChromeWin']/?/?/text[@automationid='CurrentUserNameTextBox']"
				itempath="?/?/text[@automationid='CurrentUserNameTextBox']"
				fullname="Intellitrak_UI_TestsRepository.ChromeWin.CurrentUserNameTextBox"
				id="ce1e1a99ccc9475188e340981adc25ed"
				timeout="60000"
				codefile="C:\GSL\ui_automation\Ranorex\Intellitrak_UI_Tests\Intellitrak_UI_Tests\LoginIntelliSysClient.cs"
				codeline="166"
				loglvl="Success"
				itemindex="10">
			</metainfo>
		</item>
		<item
			timeRelativeToTestSuiteStartTime="00:11.447"
			timeRelativeToTestModuleStartTime="00:11.448"
			timeWallClock="16:54:44"
			time="00:11.447"
			level="Info"
			category="Validation">
			<message>
				(Optional Action)<br/>Validating AttributeEqual (Text=$IDBadgeFriendlyName) on item 'ChromeWin.Badge1'.
			</message>
			<metainfo
				type="repoitem"
				path="/form[@automationid='ChromeWin']/form[@automationid='BaseElement']//text[@caption='Badge: 1']"
				itempath="form[@automationid='BaseElement']//text[@caption='Badge: 1']"
				fullname="Intellitrak_UI_TestsRepository.ChromeWin.Badge1"
				id="189701e4f911479a913fac7737394abb"
				timeout="60000"
				codefile="C:\GSL\ui_automation\Ranorex\Intellitrak_UI_Tests\Intellitrak_UI_Tests\LoginIntelliSysClient.cs"
				codeline="170"
				itemindex="11"
				loglvl="Info">
			</metainfo>
		</item>
		<item
			timeRelativeToTestSuiteStartTime="00:12.230"
			timeRelativeToTestModuleStartTime="00:12.231"
			timeWallClock="16:54:45"
			time="00:12.230"
			level="Failure"
			category="Validation">
			<message>
				Attribute 'Text' of element for item 'Intellitrak_UI_TestsRepository.ChromeWin.Badge1' does not match the specified value (actual='Badge: 1', expected='1').
			</message>
			<metainfo
				type="repoitem"
				path="/form[@automationid='ChromeWin']/form[@automationid='BaseElement']//text[@caption='Badge: 1']"
				itempath="form[@automationid='BaseElement']//text[@caption='Badge: 1']"
				fullname="Intellitrak_UI_TestsRepository.ChromeWin.Badge1"
				id="189701e4f911479a913fac7737394abb"
				timeout="60000"
				codefile="C:\GSL\ui_automation\Ranorex\Intellitrak_UI_Tests\Intellitrak_UI_Tests\LoginIntelliSysClient.cs"
				codeline="171"
				loglvl="Failure"
				itemindex="11">
			</metainfo>
		</item>
		<item
			timeRelativeToTestSuiteStartTime="00:12.232"
			timeRelativeToTestModuleStartTime="00:12.233"
			timeWallClock="16:54:45"
			time="00:12.232"
			level="Info"
			category="Validation">
			<message>
				(Optional Action)<br/>Validating AttributeEqual (Text='GSL Solutions, Inc.') on item 'ChromeWin.CompanyName'.
			</message>
			<metainfo
				type="repoitem"
				path="/form[@automationid='ChromeWin']/form[@automationid='BaseElement']/?/?/text[@automationid='CompanyName']"
				itempath="form[@automationid='BaseElement']/?/?/text[@automationid='CompanyName']"
				fullname="Intellitrak_UI_TestsRepository.ChromeWin.CompanyName"
				id="3f961dea4bad46dfaf22791b44c6c536"
				timeout="60000"
				codefile="C:\GSL\ui_automation\Ranorex\Intellitrak_UI_Tests\Intellitrak_UI_Tests\LoginIntelliSysClient.cs"
				codeline="175"
				itemindex="12"
				loglvl="Info">
			</metainfo>
		</item>
		<item
			timeRelativeToTestSuiteStartTime="00:12.947"
			timeRelativeToTestModuleStartTime="00:12.948"
			timeWallClock="16:54:46"
			time="00:12.947"
			level="Success"
			category="Validation"
			errimg=".\LoginInt_78fd4a25_b45cc08b_trace.jpg"
			errthumb=".\LoginInt_78fd4a25_b45cc08b_trace_thumb.jpg">
			<message>
				Attribute 'Text' of element for item 'Intellitrak_UI_TestsRepository.ChromeWin.CompanyName' does match the specified value.
			</message>
			<metainfo
				type="repoitem"
				path="/form[@automationid='ChromeWin']/form[@automationid='BaseElement']/?/?/text[@automationid='CompanyName']"
				itempath="form[@automationid='BaseElement']/?/?/text[@automationid='CompanyName']"
				fullname="Intellitrak_UI_TestsRepository.ChromeWin.CompanyName"
				id="3f961dea4bad46dfaf22791b44c6c536"
				timeout="60000"
				codefile="C:\GSL\ui_automation\Ranorex\Intellitrak_UI_Tests\Intellitrak_UI_Tests\LoginIntelliSysClient.cs"
				codeline="176"
				loglvl="Success"
				itemindex="12">
			</metainfo>
		</item>
		<item
			timeRelativeToTestSuiteStartTime="00:12.949"
			timeRelativeToTestModuleStartTime="00:12.950"
			timeWallClock="16:54:46"
			time="00:12.949"
			level="Info"
			category="Validation"
			errimg=".\LoginInt_78fd4a25_b45cc08b_trace.jpg"
			errthumb=".\LoginInt_78fd4a25_b45cc08b_trace_thumb.jpg">
			<message>
				(Optional Action)<br/>Validating AttributeEqual (Text='IntelliSys 2.0.238.3 (32-bit)') on item 'ChromeWin.IntelliSys20238332Bit'.
			</message>
			<metainfo
				type="repoitem"
				path="/form[@automationid='ChromeWin']/form[@automationid='BaseElement']/?/?/text[@caption~'^IntelliSys\ 2\.0\.238\.3\ \(32-']"
				itempath="form[@automationid='BaseElement']/?/?/text[@caption~'^IntelliSys\ 2\.0\.238\.3\ \(32-']"
				fullname="Intellitrak_UI_TestsRepository.ChromeWin.IntelliSys20238332Bit"
				id="d17926a8c4d7471eb1196c9a6a361a99"
				timeout="60000"
				codefile="C:\GSL\ui_automation\Ranorex\Intellitrak_UI_Tests\Intellitrak_UI_Tests\LoginIntelliSysClient.cs"
				codeline="180"
				itemindex="13"
				loglvl="Info">
			</metainfo>
		</item>
		<item
			timeRelativeToTestSuiteStartTime="00:13.579"
			timeRelativeToTestModuleStartTime="00:13.580"
			timeWallClock="16:54:46"
			time="00:13.579"
			level="Success"
			category="Validation"
			errimg=".\LoginInt_78fd4a25_1b87e683_trace.jpg"
			errthumb=".\LoginInt_78fd4a25_1b87e683_trace_thumb.jpg">
			<message>
				Attribute 'Text' of element for item 'Intellitrak_UI_TestsRepository.ChromeWin.IntelliSys20238332Bit' does match the specified value.
			</message>
			<metainfo
				type="repoitem"
				path="/form[@automationid='ChromeWin']/form[@automationid='BaseElement']/?/?/text[@caption~'^IntelliSys\ 2\.0\.238\.3\ \(32-']"
				itempath="form[@automationid='BaseElement']/?/?/text[@caption~'^IntelliSys\ 2\.0\.238\.3\ \(32-']"
				fullname="Intellitrak_UI_TestsRepository.ChromeWin.IntelliSys20238332Bit"
				id="d17926a8c4d7471eb1196c9a6a361a99"
				timeout="60000"
				codefile="C:\GSL\ui_automation\Ranorex\Intellitrak_UI_Tests\Intellitrak_UI_Tests\LoginIntelliSysClient.cs"
				codeline="181"
				loglvl="Success"
				itemindex="13">
			</metainfo>
		</item>
		<item
			timeRelativeToTestSuiteStartTime="00:13.581"
			timeRelativeToTestModuleStartTime="00:13.582"
			timeWallClock="16:54:46"
			time="00:13.581"
			level="Error"
			category="Module"
			errimg=".\LoginInt_78fd4a25_1b87e683_trace.jpg"
			errthumb=".\LoginInt_78fd4a25_1b87e683_trace_thumb.jpg">
			<message>
				The module has failed because one or more actions have failed.
			</message>
			<metainfo
				loglvl="Error">
			</metainfo>
		</item>
	</activity>
</report>
