﻿<?xml version="1.0" encoding="utf-8"?>
<report
	progress="">
	<activity
		result="Failed"
		duration="19.59s"
		durationms="19585"
		type="root"
		rid="caffca9ba1f5fce"
		totalerrorcount="1"
		totalwarningcount="1"
		totalsuccesstestcasecount="0"
		totalfailedtestcasecount="0"
		totalblockedtestcasecount="0"
		childsuccesscount="0"
		childfailedcount="0"
		childblockedcount="0"
		totalsuccesscount="0"
		totalfailedcount="0"
		totalblockedcount="0"
		totalmaintenancemodecount="0"
		user="amorales"
		rxversion="8.0.1.0"
		host="WOVENWARE-138"
		osversion="Windows 10 64bit"
		runtimeversion="4.0.30319.42000"
		procarch="32bit"
		oslanguage="en-US"
		dtnlanguage="en-US"
		screenresolution="3840x1080"
		timestamp="4/24/2018 4:41:49 PM"
		timestampiso="2018-04-24T20:41:49"
		endtime="4/24/2018 4:42:08 PM"
		timeoutfactor="1"
		module="LoginIntelliSysClient">
		<detail>
			LoginIntelliSysClient
		</detail>
		<varbindings>
		</varbindings>
		<item
			timeRelativeToTestSuiteStartTime="00:00.874"
			timeRelativeToTestModuleStartTime="00:00.875"
			timeWallClock="16:41:50"
			time="00:00.874"
			level="Warn"
			category="Data">
			<message>
				The following module variables are not bound to a data column:<br/>userName, domain, Password, IDBadgeFriendlyName, NewVariable
			</message>
			<metainfo
				loglvl="Warn">
			</metainfo>
		</item>
		<item
			timeRelativeToTestSuiteStartTime="00:00.903"
			timeRelativeToTestModuleStartTime="00:00.904"
			timeWallClock="16:41:50"
			time="00:00.903"
			level="Info"
			category="Application">
			<message>
				Run application 'C:\Program Files (x86)\GSL Solutions\GSL IntelliSys Client\IntelliSysClient.application' with arguments '' in normal mode.
			</message>
			<metainfo
				itemindex="0"
				codefile="C:\GSL\ui_automation\Ranorex\Intellitrak_UI_Tests\Intellitrak_UI_Tests\LoginIntelliSysClient.cs"
				codeline="147"
				loglvl="Info">
			</metainfo>
		</item>
		<item
			timeRelativeToTestSuiteStartTime="00:00.976"
			timeRelativeToTestModuleStartTime="00:00.977"
			timeWallClock="16:41:50"
			time="00:00.976"
			level="Info"
			category="Mouse">
			<message>
				Mouse Left Click item 'LoginWin.UnableToScanYourIDBadgePressHere' at Center.
			</message>
			<metainfo
				type="repoitem"
				path="/form[@automationid='LoginWin']/container[1]/container[1]/container[2]/button[@text~'^Unable\ to\ scan\ your\ ID\ ba']"
				itempath="container[1]/container[1]/container[2]/button[@text~'^Unable\ to\ scan\ your\ ID\ ba']"
				fullname="Intellitrak_UI_TestsRepository.LoginWin.UnableToScanYourIDBadgePressHere"
				id="fa4f76fff8bd42918547d0b9eb05b752"
				timeout="60000"
				codefile="C:\GSL\ui_automation\Ranorex\Intellitrak_UI_Tests\Intellitrak_UI_Tests\LoginIntelliSysClient.cs"
				codeline="151"
				itemindex="1"
				loglvl="Info">
			</metainfo>
		</item>
		<item
			timeRelativeToTestSuiteStartTime="00:05.066"
			timeRelativeToTestModuleStartTime="00:05.067"
			timeWallClock="16:41:54"
			time="00:05.066"
			level="Info"
			category="Mouse">
			<message>
				Mouse Left Click item 'LoginWin.PbTagID' at 1;8.
			</message>
			<metainfo
				type="repoitem"
				path="/form[@automationid='LoginWin']/container[1]/container[1]/container[1]/?/?/text[@automationid='pbTagID']"
				itempath="container[1]/container[1]/container[1]/?/?/text[@automationid='pbTagID']"
				fullname="Intellitrak_UI_TestsRepository.LoginWin.PbTagID"
				id="631bf9cf62f44b1299bb1fbb49c8d4ac"
				timeout="60000"
				codefile="C:\GSL\ui_automation\Ranorex\Intellitrak_UI_Tests\Intellitrak_UI_Tests\LoginIntelliSysClient.cs"
				codeline="155"
				itemindex="2"
				loglvl="Info">
			</metainfo>
		</item>
		<item
			timeRelativeToTestSuiteStartTime="00:06.059"
			timeRelativeToTestModuleStartTime="00:06.060"
			timeWallClock="16:41:55"
			time="00:06.059"
			level="Info"
			category="Keyboard">
			<message>
				Key sequence from variable '$IDBadgeFriendlyName'.
			</message>
			<metainfo
				itemindex="3"
				codefile="C:\GSL\ui_automation\Ranorex\Intellitrak_UI_Tests\Intellitrak_UI_Tests\LoginIntelliSysClient.cs"
				codeline="159"
				loglvl="Info">
			</metainfo>
		</item>
		<item
			timeRelativeToTestSuiteStartTime="00:06.280"
			timeRelativeToTestModuleStartTime="00:06.281"
			timeWallClock="16:41:55"
			time="00:06.280"
			level="Info"
			category="Mouse">
			<message>
				Mouse Left Click item 'LoginWin.TxtLoginName' at 68;25.
			</message>
			<metainfo
				type="repoitem"
				path="/form[@automationid='LoginWin']/container[1]/container[1]/container[1]/?/?/text[@automationid='txtLoginName']"
				itempath="container[1]/container[1]/container[1]/?/?/text[@automationid='txtLoginName']"
				fullname="Intellitrak_UI_TestsRepository.LoginWin.TxtLoginName"
				id="ac5c66cb4a434f10b512b78769ad4fd1"
				timeout="60000"
				codefile="C:\GSL\ui_automation\Ranorex\Intellitrak_UI_Tests\Intellitrak_UI_Tests\LoginIntelliSysClient.cs"
				codeline="163"
				itemindex="4"
				loglvl="Info">
			</metainfo>
		</item>
		<item
			timeRelativeToTestSuiteStartTime="00:07.264"
			timeRelativeToTestModuleStartTime="00:07.265"
			timeWallClock="16:41:56"
			time="00:07.264"
			level="Info"
			category="Keyboard">
			<message>
				Key sequence from variable '$NewVariable'.
			</message>
			<metainfo
				itemindex="5"
				codefile="C:\GSL\ui_automation\Ranorex\Intellitrak_UI_Tests\Intellitrak_UI_Tests\LoginIntelliSysClient.cs"
				codeline="167"
				loglvl="Info">
			</metainfo>
		</item>
		<item
			timeRelativeToTestSuiteStartTime="00:09.033"
			timeRelativeToTestModuleStartTime="00:09.034"
			timeWallClock="16:41:58"
			time="00:09.033"
			level="Info"
			category="Mouse">
			<message>
				Mouse Left Click item 'LoginWin.SomeContainer.PbPassword' at 9;46.
			</message>
			<metainfo
				type="repoitem"
				path="/form[@automationid='LoginWin']/container[1]/container[1]/container[1]/?/?/text[@automationid='pbPassword']"
				itempath="?/?/text[@automationid='pbPassword']"
				fullname="Intellitrak_UI_TestsRepository.LoginWin.SomeContainer.PbPassword"
				id="9bf2961360564b8687b19b41748544a7"
				timeout="90000"
				codefile="C:\GSL\ui_automation\Ranorex\Intellitrak_UI_Tests\Intellitrak_UI_Tests\LoginIntelliSysClient.cs"
				codeline="171"
				itemindex="6"
				loglvl="Info">
			</metainfo>
		</item>
		<item
			timeRelativeToTestSuiteStartTime="00:10.056"
			timeRelativeToTestModuleStartTime="00:10.057"
			timeWallClock="16:41:59"
			time="00:10.056"
			level="Info"
			category="Keyboard">
			<message>
				Key sequence from variable '$Password'.
			</message>
			<metainfo
				itemindex="7"
				codefile="C:\GSL\ui_automation\Ranorex\Intellitrak_UI_Tests\Intellitrak_UI_Tests\LoginIntelliSysClient.cs"
				codeline="175"
				loglvl="Info">
			</metainfo>
		</item>
		<item
			timeRelativeToTestSuiteStartTime="00:10.573"
			timeRelativeToTestModuleStartTime="00:10.574"
			timeWallClock="16:41:59"
			time="00:10.573"
			level="Info"
			category="Mouse">
			<message>
				Mouse Left Click item 'LoginWin.SomeContainer.BtnLogin' at 190;28.
			</message>
			<metainfo
				type="repoitem"
				path="/form[@automationid='LoginWin']/container[1]/container[1]/container[1]/?/?/button[@automationid='btnLogin']"
				itempath="?/?/button[@automationid='btnLogin']"
				fullname="Intellitrak_UI_TestsRepository.LoginWin.SomeContainer.BtnLogin"
				id="0a43b4424ee143ab943a1fe66027bba9"
				timeout="90000"
				codefile="C:\GSL\ui_automation\Ranorex\Intellitrak_UI_Tests\Intellitrak_UI_Tests\LoginIntelliSysClient.cs"
				codeline="179"
				itemindex="8"
				loglvl="Info">
			</metainfo>
		</item>
		<item
			timeRelativeToTestSuiteStartTime="00:11.359"
			timeRelativeToTestModuleStartTime="00:11.360"
			timeWallClock="16:42:00"
			time="00:11.359"
			level="Info"
			category="Validation">
			<message>
				Validating AttributeEqual (Text='MoralesRPh1') on item 'ChromeWin.MoralesRPh1'.
			</message>
			<metainfo
				type="repoitem"
				path="/form[@automationid='ChromeWin']/form[@automationid='BaseElement']//text[@caption='MoralesRPh1']"
				itempath="form[@automationid='BaseElement']//text[@caption='MoralesRPh1']"
				fullname="Intellitrak_UI_TestsRepository.ChromeWin.MoralesRPh1"
				id="1f48137e0dae488b87a754464c3334f2"
				timeout="60000"
				codefile="C:\GSL\ui_automation\Ranorex\Intellitrak_UI_Tests\Intellitrak_UI_Tests\LoginIntelliSysClient.cs"
				codeline="183"
				itemindex="9"
				loglvl="Info">
			</metainfo>
		</item>
		<item
			timeRelativeToTestSuiteStartTime="00:19.585"
			timeRelativeToTestModuleStartTime="00:19.586"
			timeWallClock="16:42:08"
			time="00:19.585"
			level="Error"
			category="Module">
			<message>
				The test run has been aborted by the user.
			</message>
			<metainfo
				loglvl="Error">
			</metainfo>
		</item>
	</activity>
</report>
