﻿<?xml version="1.0" encoding="utf-8"?>
<report
	progress="">
	<activity
		result="Success"
		duration="0ms"
		durationms="0"
		type="root"
		rid="de0e588ef10dada"
		totalerrorcount="0"
		totalwarningcount="1"
		totalsuccesstestcasecount="0"
		totalfailedtestcasecount="0"
		totalblockedtestcasecount="0"
		childsuccesscount="0"
		childfailedcount="0"
		childblockedcount="0"
		totalsuccesscount="0"
		totalfailedcount="0"
		totalblockedcount="0"
		totalmaintenancemodecount="0"
		user="amorales"
		rxversion="8.0.1.0"
		host="WOVENWARE-138"
		osversion="Windows 10 64bit"
		runtimeversion="4.0.30319.42000"
		procarch="32bit"
		oslanguage="en-US"
		dtnlanguage="en-US"
		screenresolution="3840x1080"
		timestamp="4/24/2018 4:50:25 PM"
		timestampiso="2018-04-24T20:50:25"
		endtime="4/24/2018 4:50:28 PM"
		timeoutfactor="1"
		module="LoginIntelliSysClient">
		<detail>
			LoginIntelliSysClient
		</detail>
		<varbindings>
		</varbindings>
		<item
			timeRelativeToTestSuiteStartTime="00:00.938"
			timeRelativeToTestModuleStartTime="00:00.940"
			timeWallClock="16:50:26"
			time="00:00.938"
			level="Warn"
			category="Data">
			<message>
				The following module variables are not bound to a data column:<br/>userName, domain, Password, IDBadgeFriendlyName
			</message>
			<metainfo
				loglvl="Warn">
			</metainfo>
		</item>
		<item
			timeRelativeToTestSuiteStartTime="00:00.970"
			timeRelativeToTestModuleStartTime="00:00.972"
			timeWallClock="16:50:26"
			time="00:00.970"
			level="Info"
			category="Validation">
			<message>
				Validating AttributeEqual (Text=$userName) on item 'ChromeWin.CurrentUserNameTextBox'.
			</message>
			<metainfo
				type="repoitem"
				path="/form[@automationid='ChromeWin']/?/?/text[@automationid='CurrentUserNameTextBox']"
				itempath="?/?/text[@automationid='CurrentUserNameTextBox']"
				fullname="Intellitrak_UI_TestsRepository.ChromeWin.CurrentUserNameTextBox"
				id="ce1e1a99ccc9475188e340981adc25ed"
				timeout="60000"
				codefile="C:\GSL\ui_automation\Ranorex\Intellitrak_UI_Tests\Intellitrak_UI_Tests\LoginIntelliSysClient.cs"
				codeline="134"
				itemindex="10"
				loglvl="Info">
			</metainfo>
		</item>
		<item
			timeRelativeToTestSuiteStartTime="00:03.234"
			timeRelativeToTestModuleStartTime="00:03.236"
			timeWallClock="16:50:28"
			time="00:03.234"
			level="Success"
			category="Validation">
			<message>
				Attribute 'Text' of element for item 'Intellitrak_UI_TestsRepository.ChromeWin.CurrentUserNameTextBox' does match the specified value.
			</message>
			<metainfo
				type="repoitem"
				path="/form[@automationid='ChromeWin']/?/?/text[@automationid='CurrentUserNameTextBox']"
				itempath="?/?/text[@automationid='CurrentUserNameTextBox']"
				fullname="Intellitrak_UI_TestsRepository.ChromeWin.CurrentUserNameTextBox"
				id="ce1e1a99ccc9475188e340981adc25ed"
				timeout="60000"
				codefile="C:\GSL\ui_automation\Ranorex\Intellitrak_UI_Tests\Intellitrak_UI_Tests\LoginIntelliSysClient.cs"
				codeline="135"
				loglvl="Success"
				itemindex="10">
			</metainfo>
		</item>
	</activity>
</report>
