﻿<?xml version="1.0" encoding="utf-8"?>
<report
	progress="">
	<activity
		result="Failed"
		duration="0ms"
		durationms="0"
		type="root"
		rid="2e922661ab2e01cd"
		totalerrorcount="1"
		totalwarningcount="1"
		totalsuccesstestcasecount="0"
		totalfailedtestcasecount="0"
		totalblockedtestcasecount="0"
		childsuccesscount="0"
		childfailedcount="0"
		childblockedcount="0"
		totalsuccesscount="0"
		totalfailedcount="0"
		totalblockedcount="0"
		totalmaintenancemodecount="0"
		user="amorales"
		rxversion="8.0.1.0"
		host="WOVENWARE-138"
		osversion="Windows 10 64bit"
		runtimeversion="4.0.30319.42000"
		procarch="32bit"
		oslanguage="en-US"
		dtnlanguage="en-US"
		screenresolution="3840x1080"
		timestamp="4/24/2018 4:52:24 PM"
		timestampiso="2018-04-24T20:52:24"
		endtime="4/24/2018 4:53:25 PM"
		timeoutfactor="1"
		module="LoginIntelliSysClient">
		<detail>
			LoginIntelliSysClient
		</detail>
		<errormessage>
			Failed to find item 'Intellitrak_UI_TestsRepository.LoginWin.UnableToScanYourIDBadgePressHere'.
		</errormessage>
		<varbindings>
		</varbindings>
		<item
			timeRelativeToTestSuiteStartTime="00:00.830"
			timeRelativeToTestModuleStartTime="00:00.831"
			timeWallClock="16:52:25"
			time="00:00.830"
			level="Warn"
			category="Data"
			errimg=".\LoginInt_d4234a25_1a30f19a_trace.jpg"
			errthumb=".\LoginInt_d4234a25_1a30f19a_trace_thumb.jpg">
			<message>
				The following module variables are not bound to a data column:<br/>userName, domain, Password, IDBadgeFriendlyName
			</message>
			<metainfo
				loglvl="Warn">
			</metainfo>
		</item>
		<item
			timeRelativeToTestSuiteStartTime="00:00.854"
			timeRelativeToTestModuleStartTime="00:00.855"
			timeWallClock="16:52:25"
			time="00:00.854"
			level="Info"
			category="Application"
			errimg=".\LoginInt_d4234a25_1a30f19a_trace.jpg"
			errthumb=".\LoginInt_d4234a25_1a30f19a_trace_thumb.jpg">
			<message>
				Run application 'C:\Program Files (x86)\GSL Solutions\GSL IntelliSys Client\IntelliSysClient.application' with arguments '' in normal mode.
			</message>
			<metainfo
				itemindex="0"
				codefile="C:\GSL\ui_automation\Ranorex\Intellitrak_UI_Tests\Intellitrak_UI_Tests\LoginIntelliSysClient.cs"
				codeline="134"
				loglvl="Info">
			</metainfo>
		</item>
		<item
			timeRelativeToTestSuiteStartTime="00:00.928"
			timeRelativeToTestModuleStartTime="00:00.929"
			timeWallClock="16:52:25"
			time="00:00.928"
			level="Info"
			category="Mouse"
			errimg=".\LoginInt_d4234a25_9832e85a_trace.jpg"
			errthumb=".\LoginInt_d4234a25_9832e85a_trace_thumb.jpg">
			<message>
				Mouse Left Click item 'LoginWin.UnableToScanYourIDBadgePressHere' at Center.
			</message>
			<metainfo
				type="repoitem"
				path="/form[@automationid='LoginWin']/container[1]/container[1]/container[2]/button[@text~'^Unable\ to\ scan\ your\ ID\ ba']"
				itempath="container[1]/container[1]/container[2]/button[@text~'^Unable\ to\ scan\ your\ ID\ ba']"
				fullname="Intellitrak_UI_TestsRepository.LoginWin.UnableToScanYourIDBadgePressHere"
				id="fa4f76fff8bd42918547d0b9eb05b752"
				timeout="60000"
				codefile="C:\GSL\ui_automation\Ranorex\Intellitrak_UI_Tests\Intellitrak_UI_Tests\LoginIntelliSysClient.cs"
				codeline="137"
				itemindex="1"
				loglvl="Info">
			</metainfo>
		</item>
		<item
			timeRelativeToTestSuiteStartTime="01:01.252"
			timeRelativeToTestModuleStartTime="01:01.253"
			timeWallClock="16:53:25"
			time="01:01.252"
			level="Error"
			category="Module"
			errimg=".\LoginInt_d4234a25_9b41b89b_trace.jpg"
			errthumb=".\LoginInt_d4234a25_9b41b89b_trace_thumb.jpg">
			<message>
				Failed to find item 'Intellitrak_UI_TestsRepository.LoginWin.UnableToScanYourIDBadgePressHere'.<br/>No element found for path '/form[@automationid='LoginWin']/container[1]/container[1]/container[2]/button[@text~'^Unable\ to\ scan\ your\ ID\ ba']' within 1m.
			</message>
			<metainfo
				stacktrace="   at Ranorex.Core.Repository.RepoItemInfo.FindInternal[T](Boolean findSingle, Boolean throwException, Duration effectiveTimeoutOverride)&#13;&#10;   at Ranorex.Core.Repository.RepoItemInfo.&lt;>c__DisplayClass75_0`1.&lt;Find>b__0()&#13;&#10;   at Ranorex.Core.Testing.Services.NoMaintenanceModeService.HandleElementNotFound[T](Func`1 action, RepoItemInfo entry)&#13;&#10;   at Ranorex.Core.Repository.RepoItemInfo.Find[T](Boolean findSingle, Boolean throwException, Duration effectiveTimeoutOverride)&#13;&#10;   at Ranorex.Core.Repository.RepoItemInfo.CreateAdapter[T](Boolean throwException, Duration waitTimeout)&#13;&#10;   at Ranorex.Core.Repository.RepoItemInfo.CreateAdapter[T](Boolean throwException)&#13;&#10;   at Intellitrak_UI_Tests.Intellitrak_UI_TestsRepositoryFolders.LoginWinAppFolder.get_UnableToScanYourIDBadgePressHere() in C:\GSL\ui_automation\Ranorex\Intellitrak_UI_Tests\Intellitrak_UI_Tests\Intellitrak_UI_TestsRepository.cs:line 635&#13;&#10;   at Intellitrak_UI_Tests.LoginIntelliSysClient.Ranorex.Core.Testing.ITestModule.Run() in C:\GSL\ui_automation\Ranorex\Intellitrak_UI_Tests\Intellitrak_UI_Tests\LoginIntelliSysClient.cs:line 138&#13;&#10;   at Ranorex.Core.Testing.TestModuleLeaf.RunInternal(DataContext parentDataContext, Int32 iteration, Int32 iterationCount, Boolean skipIteration)"
				codefile="C:\GSL\ui_automation\Ranorex\Intellitrak_UI_Tests\Intellitrak_UI_Tests\LoginIntelliSysClient.cs"
				codeline="138"
				type="repoitem"
				path="/form[@automationid='LoginWin']/container[1]/container[1]/container[2]/button[@text~'^Unable\ to\ scan\ your\ ID\ ba']"
				itempath="container[1]/container[1]/container[2]/button[@text~'^Unable\ to\ scan\ your\ ID\ ba']"
				fullname="Intellitrak_UI_TestsRepository.LoginWin.UnableToScanYourIDBadgePressHere"
				id="fa4f76fff8bd42918547d0b9eb05b752"
				timeout="60000"
				loglvl="Error"
				itemindex="1">
			</metainfo>
		</item>
	</activity>
</report>
