﻿<?xml version="1.0" encoding="utf-8"?>
<report
	progress="">
	<activity
		result="Success"
		duration="0ms"
		durationms="0"
		type="root"
		rid="a5abf7a411eb7ec"
		totalerrorcount="0"
		totalwarningcount="0"
		totalsuccesstestcasecount="0"
		totalfailedtestcasecount="0"
		totalblockedtestcasecount="0"
		childsuccesscount="0"
		childfailedcount="0"
		childblockedcount="0"
		totalsuccesscount="0"
		totalfailedcount="0"
		totalblockedcount="0"
		totalmaintenancemodecount="0"
		user="amorales"
		rxversion="8.0.1.0"
		host="WOVENWARE-138"
		osversion="Windows 10 64bit"
		runtimeversion="4.0.30319.42000"
		procarch="32bit"
		oslanguage="en-US"
		dtnlanguage="en-US"
		screenresolution="3840x1080"
		timestamp="4/24/2018 4:04:51 PM"
		timestampiso="2018-04-24T20:04:51"
		endtime="4/24/2018 4:04:52 PM"
		timeoutfactor="1"
		module="OpenDrawerSimulator">
		<detail>
			OpenDrawerSimulator
		</detail>
		<varbindings>
		</varbindings>
		<item
			timeRelativeToTestSuiteStartTime="00:00.867"
			timeRelativeToTestModuleStartTime="00:00.868"
			timeWallClock="16:04:52"
			time="00:00.867"
			level="Info"
			category="Application">
			<message>
				Run application 'C:\Program Files (x86)\GSL Solutions\GSL Simulator User Interface\DrawerSimulatorGUI.exe' with arguments '' in normal mode.
			</message>
			<metainfo
				itemindex="1"
				codefile="C:\GSL\ui_automation\Ranorex\Intellitrak_UI_Tests\Intellitrak_UI_Tests\OpenDrawerSimulator.cs"
				codeline="85"
				loglvl="Info">
			</metainfo>
		</item>
	</activity>
</report>
